Cassie Chou - Analysis
…
co2_data <- co2_data %>% mutate(X2003 = as.numeric(X2003), X2004 = as.numeric(X2004), X2005 = as.numeric(X2005), X2006 = as.numeric(X2006), X2011 = as.numeric(X2011), X2012 = as.numeric(X2012), X2013 = as.numeric(X2013))

Warning: There were 7 warnings in `mutate()`.
The first warning was:
ℹ In argument: `X2003 = as.numeric(X2003)`.
Caused by warning:
! NAs introduced by coercion
ℹ Run `dplyr::last_dplyr_warnings()` to see the 6 remaining warnings.

co2_data <- co2_data %>% pivot_longer(cols = starts_with("X"), names_to = "Year", names_prefix = "X", values_to = "CO2_Emissions", values_drop_na = TRUE)

co2_data

# A tibble: 43,255 × 3
   country     Year  CO2_Emissions
   <chr>       <chr>         <dbl>
 1 Afghanistan 1800          0.001
 2 Afghanistan 1801          0.001
 3 Afghanistan 1802          0.001
 4 Afghanistan 1803          0.001
 5 Afghanistan 1804          0.001
 6 Afghanistan 1805          0.001
 7 Afghanistan 1806          0.001
 8 Afghanistan 1807          0.001
 9 Afghanistan 1808          0.001
10 Afghanistan 1809          0.001
# ℹ 43,245 more rows
…
